{
    "parent": 1,
    "homepage": {
        "nob": "https://www.uib.no"
    },
    "visitAddress": {
        "postalCode": "5020",
        "city": "Bergen",
        "street": "Møllendalsveien 61",
        "country": "no"
    },
    "startDate": "2016-06-08",
    "validFrom": "2016-06-08",
    "tags": [
        "dfo",
        "fs",
        "stemmerettsted",
        "🦓"
    ],
    "ouId": 18,
    "name": {
        "eng": "Faculty of Fine Art, Music and Design",
        "nob": "Fakultet for kunst, musikk og design"
    },
    "email": "post@kmd.uib.no",
    "acronym": {
        "nob": "KMD"
    },
    "shortName": {
        "nob": "KMD"
    },
    "category": {
        "type": "faculty"
    },
    "hierarchy": "UIB.FORMAL",
    "externalKeys": [
        {
            "type": "cost_center",
            "value": "00180000003780",
            "sourceSystem": "dfo_sap"
        },
        {
            "type": "dfo_org_id",
            "value": "10000156",
            "sourceSystem": "dfo_sap-9901"
        },
        {
            "type": "dfo_org_id",
            "value": "10016734",
            "sourceSystem": "dfo_sap"
        },
        {
            "type": "eph_id",
            "value": "104",
            "sourceSystem": "eph-kurs"
        },
        {
            "type": "eph_id",
            "value": "120",
            "sourceSystem": "eph"
        },
        {
            "type": "legacy_stedkode",
            "value": "180000"
        }
    ],
    "predecessors": []
}